…
## Model Features

The `pitch_data` object contains 21 possible features that could be
used in a putative classification model to predict `is_strike`:

``` r
pitch_data
#> # A tibble: 54,705 × 22
#>    is_strike inning is_bottom balls strikes outs_before is_lhp is_lhb pitch_type
#>        <int>  <int>     <int> <int>   <int>       <int>  <int>  <int> <chr>     
#>  1         1      1         0     0       0           0      0      0 FF        
#>  2         0      1         0     0       1           0      0      0 FF        
#>  3         0      1         0     0       0           0      0      0 SL        
#>  4         0      1         0     1       0           0      0      0 FF        
#>  5         1      1         0     2       0           0      0      0 SL        
#>  6         0      1         0     0       0           1      0      1 CH        
#>  7         0      1         0     1       0           1      0      1 FF        
#>  8         0      1         0     2       1           1      0      1 FF        
#>  9         1      1         0     3       1           1      0      1 FF        
#> 10         1      1         1     0       0           0      0      1 FT        
#> # ℹ 54,695 more rows
#> # ℹ 13 more variables: bat_score_before <int>, field_score <int>,
#> #   basecode_before <int>, batterid <chr>, pitcherid <chr>, cid <chr>,
#> #   hp_umpid <chr>, plate_location_x <dbl>, plate_location_z <dbl>,
#> #   rel_speed <dbl>, spin_rate <dbl>, induced_vert_break <dbl>,
#> #   horizontal_break <dbl>

table(pitch_data$is_strike)  # slight class imbalance
#> 
#>     0     1 
#> 37530 17175

# rm first row: is_strike is the response!
tibble::enframe(sapply(pitch_data, class)) |> tail(-1L)
#> # A tibble: 21 × 2
#>    name             value    
#>    <chr>            <chr>    
#>  1 inning           integer  
#>  2 is_bottom        integer  
#>  3 balls            integer  
#>  4 strikes          integer  
#>  5 outs_before      integer  
#>  6 is_lhp           integer  
#>  7 is_lhb           integer  
#>  8 pitch_type       character
#>  9 bat_score_before integer  
#> 10 field_score      integer  
#> # ℹ 11 more rows
```
…
That said, it should be noted that random forest models do perform a
sort of *quasi*-internal cross-validation, out-of-bag (OOB) samples,
that should guard (somewhat) against over-fitting.

## Append predictions to original data

It is often safer to immediately append the predicted probabilities to
the original data set so they do not become out-of-sync:

``` r
pitch_data2$strike_prob <- rf_probs

dplyr::select(pitch_data2, all_of(feats), is_strike, strike_prob)
#> # A tibble: 34,350 × 6
#>    plate_location_x plate_location_z strikes balls is_strike strike_prob
#>               <dbl>            <dbl>   <int> <int>     <int>       <dbl>
#>  1           -0.899            2.80        0     0         0       0.7  
#>  2            0.441            1.20        0     1         0       0.004
#>  3            0.028            0.216       2     1         0       0    
#>  4           -0.801            0.772       0     0         0       0.004
#>  5            1.28             2.89        0     0         0       0.02 
#>  6            0.853            1.78        0     2         0       0.52 
#>  7            1.06             2.00        0     1         0       0.092
#>  8            1.70             2.38        0     0         0       0.02 
#>  9           -0.88             0.957       1     0         0       0    
#> 10           -1.65             2.80        0     0         0       0.012
#> # ℹ 34,340 more rows
```
…
