…
simres  # view the `tibble` of simulation results
#> # A tibble: 190 × 5
#>    iter     n1    n2 class_balance accuracy
#>    <chr> <int> <int>         <dbl>    <dbl>
#>  1 1       206   194         0.515    0.838
#>  2 2       207   193         0.518    0.848
#>  3 3       208   192         0.52     0.85 
#>  4 4       209   191         0.522    0.845
#>  5 5       210   190         0.525    0.838
#>  6 6       211   189         0.528    0.848
#>  7 7       212   188         0.53     0.85 
#>  8 8       213   187         0.532    0.845
#>  9 9       214   186         0.535    0.848
#> 10 10      215   185         0.538    0.842
#> # ℹ 180 more rows
```
…
