…
``` r
n_trials <- 1000
sim_tbl  <- tibble::tibble(
  n_sim           = seq_len(n_trials),
  switch_win      = withr::with_seed(833, runif(n_trials) > 1 / 3),
  stay_win        = !switch_win,
  sum_switch_wins = cumsum(switch_win),
  sum_stay_wins   = cumsum(stay_win),
  prob_switch_win = sum_switch_wins / (sum_switch_wins + sum_stay_wins),
  prob_stay_win   = 1 - prob_switch_win
)

# simulation results
sim_tbl
#> # A tibble: 1,000 × 7
#>    n_sim switch_win stay_win sum_switch_wins sum_stay_wins prob_switch_win prob_stay_win
#>    <int> <lgl>      <lgl>              <int>         <int>           <dbl>         <dbl>
#>  1     1 TRUE       FALSE                  1             0           1             0    
#>  2     2 TRUE       FALSE                  2             0           1             0    
#>  3     3 TRUE       FALSE                  3             0           1             0    
#>  4     4 TRUE       FALSE                  4             0           1             0    
#>  5     5 TRUE       FALSE                  5             0           1             0    
#>  6     6 FALSE      TRUE                   5             1           0.833         0.167
#>  7     7 TRUE       FALSE                  6             1           0.857         0.143
#>  8     8 FALSE      TRUE                   6             2           0.75          0.25 
#>  9     9 FALSE      TRUE                   6             3           0.667         0.333
#> 10    10 TRUE       FALSE                  7             3           0.7           0.3  
#> # ℹ 990 more rows
```
…
